USADA doping data • dopingdata
…
Sanction Dates

sanction_announced contains the date the sanction was announced, and about 30 of these contain two values (original and updated). Wrangling these values pose some challenges because they aren’t consistently messy.

subset(usada, 
  grepl("^original", usada[['sanction_announced']]), 
  sanction_announced)
#> # A tibble: 30 × 1
#>    sanction_announced                       
#>    <chr>                                    
#>  1 original: 3/20/2023; updated: 12/01/2023 
#>  2 original: 05/07/2019; updated: 02/04/2022
#>  3 original: 09/03/21; updated: 01/25/22    
#>  4 original:  11/04/2019;updated: 05/17/2021
#>  5 original 12/20/2018; updated 11/04/2020  
#>  6 original: 10/19/2020updated: 01/05/2021  
#>  7 original: 09/05/2019; updated: 08/26/2020
#>  8 original: 07/22/2020, updated: 11/03/2022
#>  9 original 09/11/2018; updated 01/16/2020  
#> 10 original: 06/17/2019; updated: 12/16/2019
#> # ℹ 20 more rows
…
usada_sports <- tibble::as_tibble(usada_dates)
str(usada_sports)
#> tibble [649 × 6] (S3: tbl_df/tbl/data.frame)
#>  $ athlete           : chr [1:649] "rodriguez, daniel" "park, mariah" "frey, john" "forrest, evan" ...
#>  $ sport             : chr [1:649] "mixed martial arts" "weightlifting" "cycling" "weightlifting" ...
#>  $ substance_reason  : chr [1:649] "ostarine; lgd-4033" "chlorthalidone" "non-analytical: refusal to submit to sample collection" "boldenone; drostanolone; methandienone; nandrolone; testosterone" ...
#>  $ sanction_terms    : chr [1:649] "3-month suspenion" "public warning" "2-year suspension; loss of results" "3-year suspension; loss of results" ...
#>  $ sanction_announced: chr [1:649] "12/14/2023" "12/11/2023" "12/05/2023" "11/30/2023" ...
#>  $ sanction_date     : Date[1:649], format: "2023-12-14" "2023-12-11" ...

We can start by counting the sport column:

usada_sports |> 
  dplyr::count(sport, sort = TRUE)
#> # A tibble: 66 × 2
#>    sport                                   n
#>    <chr>                               <int>
#>  1 mixed martial arts                    135
#>  2 cycling                               125
#>  3 weightlifting                         122
#>  4 track and field                        93
#>  5 wrestling                              15
#>  6 triathlon                              14
#>  7 brazilian jiu-jitsu                    13
#>  8 paralympic track and field             11
#>  9 swimming                                9
#> 10 cycling - athlete support personnel     6
#> # ℹ 56 more rows
…
Tidy sports

The athletes listed with multiple sports will occupy multiple rows in a ‘tidy’ version of usada_sports. We can check this using count() below to verify we have one athlete for each sport:

usada_sports |> 
  dplyr::filter(multiple_sports == TRUE) |> 
  tidyr::separate_rows(sport, sep = "and|, ") |> 
  dplyr::count(athlete, sport)
#> # A tibble: 23 × 3
#>    athlete                  sport               n
#>    <chr>                    <chr>           <int>
#>  1 allison, kyler           " skeleton"         1
#>  2 allison, kyler           "bobsled "          1
#>  3 bailey, ryan             " skeleton"         1
#>  4 bailey, ryan             "bobsled "          1
#>  5 bailey, ryan             "track & field"     1
#>  6 blandford, jenna         "cycling"           1
#>  7 blandford, jenna         "triathlon"         1
#>  8 cruse, j.c.              " skeleton"         1
#>  9 cruse, j.c.              "bobsled "          1
#> 10 denney phillips, jessica "cycling"           1
#> # ℹ 13 more rows
…
