Process raw data — process_text • dopingdata
…
    Arguments

    raw_data

    Value

tibble with standardized names, lowercase text, all character!

    Examples

require(palmerpenguins)
#> Loading required package: palmerpenguins
process_text(palmerpenguins::penguins_raw)
#> # A tibble: 344 × 17
#>    study_n…¹ sampl…² species region island stage indiv…³ clutc…⁴ date_…⁵ culme…⁶
#>    <chr>     <chr>   <chr>   <chr>  <chr>  <chr> <chr>   <chr>   <chr>   <chr>  
#>  1 pal0708   1       adelie… anvers torge… adul… n1a1    yes     2007-1… 39.1   
#>  2 pal0708   2       adelie… anvers torge… adul… n1a2    yes     2007-1… 39.5   
#>  3 pal0708   3       adelie… anvers torge… adul… n2a1    yes     2007-1… 40.3   
#>  4 pal0708   4       adelie… anvers torge… adul… n2a2    yes     2007-1… NA     
#>  5 pal0708   5       adelie… anvers torge… adul… n3a1    yes     2007-1… 36.7   
#>  6 pal0708   6       adelie… anvers torge… adul… n3a2    yes     2007-1… 39.3   
#>  7 pal0708   7       adelie… anvers torge… adul… n4a1    no      2007-1… 38.9   
#>  8 pal0708   8       adelie… anvers torge… adul… n4a2    no      2007-1… 39.2   
#>  9 pal0708   9       adelie… anvers torge… adul… n5a1    yes     2007-1… 34.1   
#> 10 pal0708   10      adelie… anvers torge… adul… n5a2    yes     2007-1… 42     
#> # … with 334 more rows, 7 more variables: culmen_depth_mm <chr>,
#> #   flipper_length_mm <chr>, body_mass_g <chr>, sex <chr>,
#> #   delta_15_n_o_oo <chr>, delta_13_c_o_oo <chr>, comments <chr>, and
#> #   abbreviated variable names ¹​study_name, ²​sample_number, ³​individual_id,
#> #   ⁴​clutch_completion, ⁵​date_egg, ⁶​culmen_length_mm
…
