…
``` r
dplyr::sample_n(multiple_analytic_substances, size = 10, replace = FALSE) |> 
  dplyr::mutate(
    # replace plurals
      substance_reason = stringr::str_replace_all(substance_reason,
        "and its metabolite|and its metabolites|its metabolite",
        "(metabolite)")) |> 
    tidyr::separate_rows(substance_reason, 
        sep = "; |;\t|\\t|, |;| and |and a |and | & | / ") |> 
    dplyr::mutate(substance_reason = trimws(substance_reason, "both")) |> 
    dplyr::select(athlete, substance_reason)
#> # A tibble: 33 × 2
#>    athlete        substance_reason                         
#>    <chr>          <chr>                                    
#>  1 gorgees, alex  "drostanolone"                           
#>  2 gorgees, alex  "dehydrochloromethyltestosterone (dhcmt)"
#>  3 aivazian, vahe "testosterone"                           
#>  4 aivazian, vahe "nandrolone"                             
#>  5 aivazian, vahe ""                                       
#>  6 aivazian, vahe "dehydroepiandrosterone (dhea)"          
#>  7 aivazian, vahe ""                                       
#>  8 aivazian, vahe "somatropin (hgh)"                       
#>  9 aivazian, vahe "ipamorelin"                             
#> 10 aivazian, vahe ""                                       
#> # ℹ 23 more rows
```
…
