Classifying substances • dopingdata
…
The code below tests this pattern on a sample from
multiple_analytic_substances before its passed to
tidyr::separate_rows():

dplyr::sample_n(multiple_analytic_substances, size = 10, replace = FALSE) |> 
  dplyr::mutate(
    # replace plurals
      substance_reason = stringr::str_replace_all(substance_reason,
        "and its metabolite|and its metabolites|its metabolite",
        "(metabolite)")) |> 
    tidyr::separate_rows(substance_reason, 
        sep = "; |;\t|\\t|, |;| and |and a |and | & | / ") |> 
    dplyr::mutate(substance_reason = trimws(substance_reason, "both")) |> 
    dplyr::select(athlete, substance_reason)
#> # A tibble: 26 × 2
#>    athlete                substance_reason                   
#>    <chr>                  <chr>                              
#>  1 atkinson, annie        hydrochlorothiazide                
#>  2 atkinson, annie        chlorothiazide                     
#>  3 atkinson, annie        triamterene                        
#>  4 atkinson, annie        4-hydroxytriamterene               
#>  5 cardoso, josé henrique 19-norandrosterone (19-na)         
#>  6 cardoso, josé henrique 2a-methyl-5a-androstan-3a-ol-17-one
#>  7 cardoso, josé henrique epitrenbolone                      
#>  8 cardoso, josé henrique methasterone                       
#>  9 cardoso, josé henrique testosterone                       
#> 10 prince, david          ostarine                           
#> # ℹ 16 more rows
…
