…
We can start by counting the `sport` column:

``` r
usada_sports |> 
  dplyr::count(sport, sort = TRUE)
#> # A tibble: 66 × 2
#>    sport                                   n
#>    <chr>                               <int>
#>  1 mixed martial arts                    135
#>  2 cycling                               125
#>  3 weightlifting                         122
#>  4 track and field                        93
#>  5 wrestling                              15
#>  6 triathlon                              14
#>  7 brazilian jiu-jitsu                    13
#>  8 paralympic track and field             11
#>  9 swimming                                9
#> 10 cycling - athlete support personnel     6
#> # ℹ 56 more rows
```
…
We can see the multi-sport athletes are listed in `tidy_sports` (but
with one sport per row):

``` r
tidy_sports |> 
    dplyr::filter(multiple_sports == TRUE) |> 
    dplyr::select(athlete, sport)
#> # A tibble: 23 × 2
#>    athlete                       sport                   
#>    <chr>                         <chr>                   
#>  1 "allison, kyler"              bobsled                 
#>  2 "allison, kyler"              skeleton                
#>  3 "blandford, jenna"            cycling                 
#>  4 "blandford, jenna"            triathlon               
#>  5 "cruse, j.c."                 bobsled                 
#>  6 "cruse, j.c."                 skeleton                
#>  7 "schrodt, patrick \"dillon\"" bobsled                 
#>  8 "schrodt, patrick \"dillon\"" skeleton                
#>  9 "green, roderick"             paralympic track & field
#> 10 "green, roderick"             paralympic volleyball   
#> # ℹ 13 more rows
```
