clean-sports • dopingdata
…
usada_sports <- tibble::as_tibble(usada_dates)
str(usada_sports)
#> tibble [649 × 6] (S3: tbl_df/tbl/data.frame)
#>  $ athlete           : chr [1:649] "rodriguez, daniel" "park, mariah" "frey, john" "forrest, evan" ...
#>  $ sport             : chr [1:649] "mixed martial arts" "weightlifting" "cycling" "weightlifting" ...
#>  $ substance_reason  : chr [1:649] "ostarine; lgd-4033" "chlorthalidone" "non-analytical: refusal to submit to sample collection" "boldenone; drostanolone; methandienone; nandrolone; testosterone" ...
#>  $ sanction_terms    : chr [1:649] "3-month suspenion" "public warning" "2-year suspension; loss of results" "3-year suspension; loss of results" ...
#>  $ sanction_announced: chr [1:649] "12/14/2023" "12/11/2023" "12/05/2023" "11/30/2023" ...
#>  $ sanction_date     : chr [1:649] "2023-12-14" "2023-12-11" "2023-12-05" "2023-11-30" ...

We can start by counting the sport column:

usada_sports |> 
  dplyr::count(sport, sort = TRUE)
#> # A tibble: 66 × 2
#>    sport                                   n
#>    <chr>                               <int>
#>  1 mixed martial arts                    135
#>  2 cycling                               125
#>  3 weightlifting                         122
#>  4 track and field                        93
#>  5 wrestling                              15
#>  6 triathlon                              14
#>  7 brazilian jiu-jitsu                    13
#>  8 paralympic track and field             11
#>  9 swimming                                9
#> 10 cycling - athlete support personnel     6
#> # ℹ 56 more rows
…
Verify there aren’t any duplicates (again).

tidy_sports |> 
  dplyr::count(athlete, sanction_date, sport) |> 
  dplyr::filter(n > 1)
#> # A tibble: 0 × 4
#> # ℹ 4 variables: athlete <chr>, sanction_date <chr>, sport <chr>, n <int>

We can see the multi-sport athletes are listed in
tidy_sports (but with one sport per row):

tidy_sports |> 
    dplyr::filter(multiple_sports == TRUE) |> 
    dplyr::select(athlete, sport)
#> # A tibble: 23 × 2
#>    athlete                       sport                   
#>    <chr>                         <chr>                   
#>  1 "allison, kyler"              bobsled                 
#>  2 "allison, kyler"              skeleton                
#>  3 "blandford, jenna"            cycling                 
#>  4 "blandford, jenna"            triathlon               
#>  5 "cruse, j.c."                 bobsled                 
#>  6 "cruse, j.c."                 skeleton                
#>  7 "schrodt, patrick \"dillon\"" bobsled                 
#>  8 "schrodt, patrick \"dillon\"" skeleton                
#>  9 "green, roderick"             paralympic track & field
#> 10 "green, roderick"             paralympic volleyball   
#> # ℹ 13 more rows
…
