Multiple AAF substances • dopingdata
…
To tidy the substances with multiple steps, I’ll define a regular
expression that identifies the separators between each substance (and
make sure we’re not splitting up the individual substances). The regular
expression should (ideally) cover a range of word boundaries, tabs,
semicolons, and spaces.

Step 1: white space

I’ll start by trimming the white space from
substance_reason

dplyr::mutate(mult_aaf_subs,
  substance_reason = stringr::str_trim(substance_reason, "both")) |> 
  dplyr::select(athlete, substance_reason)
#> # A tibble: 115 × 2
#>    athlete                     substance_reason                                 
#>    <chr>                       <chr>                                            
#>  1 ruiz-gutierrez, noslen      "dexamethasone; phentermine; 19-noretiocholanolo…
#>  2 roberts, gil                "andarine; ostarine"                             
#>  3 rodriguez ocasio, christian "heptaminol; octodrine"                          
#>  4 mead, hassan                "ostarine; lgd-4033"                             
#>  5 bringas, joshua             "heptaminol; ibutamoren, oxilofrine; gw1516"     
#>  6 allen, sabina               "phentermine; lgd-4033"                          
#>  7 wilson, ian                 "stanozolol; drostanolone"                       
#>  8 prazeres, michel            "clomiphene; oxandrolone; androgenic anabolic st…
#>  9 adel, jordan                "ostarine; lgd-4033; ibutamoren"                 
#> 10 tran, hillary               "cocaine; d-methamphetamine"                     
#> 11 lacoste, jacob              "clomiphene; 19-norandrosterone (19-na)"         
#> 12 storie, logan               "ostarine; lgd‐4033; gw1516"                     
#> 13 prince, david               "ostarine; lgd‐4033"                             
#> 14 gallardo, luis              "oxymetholone; dehydrochloromethyltestosterone (…
#> 15 pessoa nunes, raphael       "hydrochlorothiazide (hctz); possession and use/…
#> 16 aivazian, vahe              "testosterone;\tnandrolone; \tdehydroepiandroste…
#> 17 pennington, raquel          "7-keto-dhea; aod-9064"                          
#> 18 lewis-parry, chi            "drostanolone; stanozolol; dehydrochloromethylte…
#> 19 gonzalez villa, jorge       "stanozolol; drostanolone"                       
#> 20 ostovich-berdon, rachael    "ostarine; gw1516"                               
#> 21 romero noboa, isidro        "androgenic anabolic steroid; cannabinoids; anas…
#> 22 hurst, rowdy                "androgenic anabolic steroid; clomiphene; modafi…
#> 23 gleaves, john               "oxandrolone; clomiphene"                        
#> 24 aguero, manuel              "amphetamine; modafinil"                         
#> 25 saint preux, ovince         "ostarine; lgd-4033; gw1516"                     
#> # … with 90 more rows
…
