AAF substances sanctions • dopingdata
…
Above is a ‘count of counts’, which tells me most of the multiple
substance combinations occur only once.

Single analytic substances

Below is a count of the single analytic substances:

single_analytic_subs <- usada_substance_types |> 
  dplyr::filter(multiple_substances == FALSE) 

single_analytic_subs |> 
  dplyr::count(substance_reason, sort = TRUE)
#> # A tibble: 114 × 2
#>    substance_reason                                           n
#>    <chr>                                                  <int>
#>  1 androgenic anabolic steroid                               54
#>  2 cannabinoids                                              41
#>  3 non-analytical: refusal to submit to sample collection    39
#>  4 ostarine                                                  38
#>  5 non-analytical: 3 whereabouts failures                    24
#>  6 methylhexaneamine                                         20
#>  7 clomiphene                                                17
#>  8 stanozolol                                                11
#>  9 furosemide                                                10
#> 10 non-analytical                                             9
#> 11 spironolactone                                             8
#> 12 1,3-dimethylbutylamine (dmba)                              7
#> 13 erythropoietin (epo)                                       7
#> 14 testosterone                                               7
#> 15 amphetamine                                                6
#> 16 canrenone                                                  6
#> 17 dehydroepiandrosterone (dhea)                              6
#> 18 dimethylbutylamine (dmba)                                  6
#> 19 gw1516                                                     6
#> 20 higenamine                                                 6
#> 21 non-analytical: use (iv)                                   6
#> 22 anastrozole                                                5
#> 23 clenbuterol                                                5
#> 24 hydrochlorothiazide                                        5
#> 25 meldonium                                                  5
#> # … with 89 more rows
…
S1 ANABOLIC AGENTS

The S1 substances are below:

tibble::tibble(dopingdata::s1_substances)
#> # A tibble: 112 × 1
#>    `dopingdata::s1_substances`                                                  
#>    <chr>                                                                        
#>  1 androgenic anabolic steroid                                                  
#>  2 androgenic anabolic steroids                                                 
#>  3 anabolic agent                                                               
#>  4 anabolic agents                                                              
#>  5 anabolic steroid                                                             
#>  6 anabolic steroids                                                            
#>  7 androstenedione                                                              
#>  8 metabolites of androstenedione                                               
#>  9 1-androstenediol (5α-androst-1-ene-3β,17β-diol)                              
#> 10 1-androstenedione                                                            
#> 11 1-androstenedione (5α-androst-1-ene-3,17-dione)                              
#> 12 1-androsterone (3α-hydroxy-5α-androst-1-ene-17-one)                          
#> 13 androstendione                                                               
#> 14 androstenedione                                                              
#> 15 1-testosterone (17β-hydroxy-5α-androst-1-en-3-one)                           
#> 16 bolasterone                                                                  
#> 17 boldione                                                                     
#> 18 calusterone                                                                  
#> 19 clostebol                                                                    
#> 20 danazol ([1,2]oxazolo[4',5':2,3]pregna-4-en-20-yn-17α-ol)                    
#> 21 dehydrochlormethyltestosterone (4-chloro-17β-hydroxy17α-methylandrosta-1,4-d…
#> 22 desoxymethyltestosterone (17α-methyl-5α-androst2-en-17β-ol and 17α-methyl-5α…
#> 23 dhcmt                                                                        
#> 24 di‐hydroxy‐lgd‐4033                                                          
#> 25 drostanolone                                                                 
#> # … with 87 more rows
…
S2 PEPTIDE HORMONES, GROWTH FACTORS, RELATED SUBSTANCES, AND
MIMETICS

The S2 substances are below:

tibble::tibble(dopingdata::s2_substances)
#> # A tibble: 85 × 1
#>    `dopingdata::s2_substances`                            
#>    <chr>                                                  
#>  1 alexamorelin                                           
#>  2 anamorelin                                             
#>  3 aod-9604                                               
#>  4 argon                                                  
#>  5 asialo epo                                             
#>  6 buserelin                                              
#>  7 carbamylated epo (cepo)                                
#>  8 chorionic gonadotrophin (cg)                           
#>  9 cjc-1293                                               
#> 10 cjc-1295                                               
#> 11 cnto-530                                               
#> 12 cobalt                                                 
#> 13 corticorelin                                           
#> 14 corticotrophins                                        
#> 15 daprodustat (gsk1278863)                               
#> 16 darbepoetins (depo)                                    
#> 17 deslorelin                                             
#> 18 epo based constructs                                   
#> 19 epo-fc, methoxy polyethylene glycol-epoetin beta (cera)
#> 20 epo-mimetic agents and their constructs                
#> 21 erythropoietin-receptor agonists                       
#> 22 epo                                                    
#> 23 (epo)                                                  
#> 24 erythropoietin                                         
#> 25 erythropoietins                                        
#> # … with 60 more rows
…
S4 HORMONE AND METABOLIC MODULATORS

The S4 substances are below:

tibble::tibble(dopingdata::s4_substances)
#> # A tibble: 55 × 1
#>    `dopingdata::s4_substances`                                                  
#>    <chr>                                                                        
#>  1 2-(2-methyl-4-((4-methyl-2-(4-(trifluoromethyl)phenyl)thiazol-5-yl)methylthi…
#>  2 2-androstenol (5α-androst-2-en-17-ol)                                        
#>  3 2-androstenone (5α-androst-2-en-17-one)                                      
#>  4 3-androstenol (5α-androst-3-en-17-ol)                                        
#>  5 3-androstenone (5α-androst-3-en-17-one)                                      
#>  6 4-androstene-3,6,17 trione (6-oxo)                                           
#>  7 ace-031                                                                      
#>  8 acetic acid                                                                  
#>  9 activators of the amp-activated protein kinase (ampk)                        
#> 10 activin a-neutralizing antibodies                                            
#> 11 activin receptor iib competitors                                             
#> 12 agents preventing activin receptor iib activation                            
#> 13 agents reducing or ablating myostatin expression                             
#> 14 aicar                                                                        
#> 15 aminoglutethimide                                                            
#> 16 anastrozole                                                                  
#> 17 androsta-1,4,6-triene-3,17-dione (androstatrienedione)                       
#> 18 androsta-3,5-diene-7,17-dione (arimistane)                                   
#> 19 androsta-3,5-diene-7,17-dione                                                
#> 20 androsta                                                                     
#> 21 anti-activin receptor iib antibodies                                         
#> 22 anti-estrogenic substances                                                   
#> 23 aromatase inhibitors                                                         
#> 24 bimagrumab                                                                   
#> 25 clomifene                                                                    
#> # … with 30 more rows
…
S5 DIURETICS/MASKING AGENTS

The S5 substances are below:

tibble::tibble(dopingdata::s5_substances)
#> # A tibble: 39 × 1
#>    `dopingdata::s5_substances`          
#>    <chr>                                
#>  1 acetazolamide                        
#>  2 acetazolamide                        
#>  3 albumin                              
#>  4 amiloride                            
#>  5 bendroflumethiazide                  
#>  6 bumetanide                           
#>  7 canrenone                            
#>  8 canrenone                            
#>  9 canrenone                            
#> 10 canrenone                            
#> 11 chlorothiazide                       
#> 12 chlortalidone                        
#> 13 chlorthalidone                       
#> 14 desmopressin                         
#> 15 dextran                              
#> 16 etacrynic acid                       
#> 17 finasteride                          
#> 18 furosemide                           
#> 19 furosemide                           
#> 20 glycerol                             
#> 21 hydrochlorothiazide                  
#> 22 hydrochlorothiazide                  
#> 23 hydroxyethyl starch                  
#> 24 indapamide                           
#> 25 intravenous administration of albumin
#> # … with 14 more rows
…
stringr::str_view_all(string = classified_single_aaf_substance$substance_reason, 
  pattern = m3_regex, match = TRUE)

SUBSTANCES & METHODS PROHIBITED IN-COMPETITION

S6 STIMULANTS

All S6 STIMULANTS, including all optical isomers,
e.g. d- and l- where relevant, are
prohibited.

The S6 substances are below:

tibble::tibble(dopingdata::s6_substances)
#> # A tibble: 97 × 1
#>    `dopingdata::s6_substances`                    
#>    <chr>                                          
#>  1 1,3-dimethylbutylamine                         
#>  2 3-methylhexan-2-amine (1,2-dimethylpentylamine)
#>  3 4-methylhexan-2-amine (methylhexaneamine)      
#>  4 4-methylpentan-2-amine (1,3-dimethylbutylamine)
#>  5 4-phenylpiracetam (carphedon)                  
#>  6 5-methylhexan-2-amine (1,4-dimethylpentylamine)
#>  7 adderall                                       
#>  8 adrafinil                                      
#>  9 adrenaline                                     
#> 10 amfepramone                                    
#> 11 amfetamine                                     
#> 12 amfetaminil                                    
#> 13 amiphenazole                                   
#> 14 amphetamine                                    
#> 15 benfluorex                                     
#> 16 benzfetamine                                   
#> 17 benzoylecgonine                                
#> 18 benzylpiperazine                               
#> 19 bromantan                                      
#> 20 carphedon                                      
#> 21 cathine                                        
#> 22 cathinone                                      
#> 23 clobenzorex                                    
#> 24 cocaine                                        
#> 25 cocaine                                        
#> # … with 72 more rows
…
  df = unclass_single_aaf_substances, 
  subs_col = substance_reason, 
  subs = "elevated t/e", 
  var = "analytic",
  val = "S1 ANABOLIC AGENTS",
  wb = FALSE) |> 
  classify_substance(
  subs_col = substance_reason, 
  subs = "3 whereabouts failures", 
  var = "non_analytic",
  val = "3 whereabouts failures",
  wb = FALSE) |> 
  dplyr::filter(!is.na(analytic) | !is.na(non_analytic)) |> 
  dplyr::select(athlete, sanction_date, substance_reason, analytic, non_analytic)
#> # A tibble: 26 × 5
#>    athlete           sanction_date substance_reason              analy…¹ non_a…²
#>    <chr>             <date>        <chr>                         <chr>   <chr>  
#>  1 gormley, isabel   2022-04-19    non-analytical: 3 whereabout… NA      3 wher…
#>  2 rodriguez, yair   2020-12-03    3 whereabouts failures        NA      3 wher…
#>  3 bey, kamal        2020-10-30    non-analytical: 3 whereabout… NA      3 wher…
#>  4 diaz, nick        2018-04-09    non-analytical: 3 whereabout… NA      3 wher…
#>  5 goodwin, marquise 2017-08-15    non-analytical: 3 whereabout… NA      3 wher…
#>  6 rollins, brianna  2017-04-20    non-analytical: 3 whereabout… NA      3 wher…
#>  7 bough, gino       2016-07-25    non-analytical: 3 whereabout… NA      3 wher…
#>  8 field, emily      2015-06-08    non-analytical: 3 whereabout… NA      3 wher…
#>  9 north, jonathan   2015-01-22    non-analytical: 3 whereabout… NA      3 wher…
#> 10 erickson, sarah   2014-10-13    non-analytical: 3 whereabout… NA      3 wher…
#> 11 ives, kevin       2014-07-08    non-analytical: 3 whereabout… NA      3 wher…
#> 12 hicks, jeremy     2014-06-20    non-analytical: 3 whereabout… NA      3 wher…
#> 13 dixon, reginald   2014-06-06    non-analytical: 3 whereabout… NA      3 wher…
#> 14 koon, paul        2014-04-28    non-analytical: 3 whereabout… NA      3 wher…
#> 15 davis, walter     2014-04-21    non-analytical: 3 whereabout… NA      3 wher…
#> 16 crawford, shawn   2013-04-18    non-analytical: 3 whereabout… NA      3 wher…
#> 17 lock, jane        2012-04-20    non-analytical: 3 whereabout… NA      3 wher…
#> 18 kochem, matt      2012-04-13    non-analytical: 3 whereabout… NA      3 wher…
#> 19 thompson, lenroy  2012-02-26    non-analytical: 3 whereabout… NA      3 wher…
#> 20 arias, luis       2012-02-24    non-analytical: 3 whereabout… NA      3 wher…
#> 21 goff, tyler       2010-09-13    non-analytical: 3 whereabout… NA      3 wher…
#> 22 jelks, mark       2010-08-30    non-analytical: 3 whereabout… NA      3 wher…
#> 23 barnette, brandon 2010-08-25    non-analytical: 3 whereabout… NA      3 wher…
#> 24 o'bee, kirk       2002-07-18    elevated t/e                  S1 ANA… NA     
#> 25 ives, kevin       2014-07-08    non-analytical: 3 whereabout… NA      3 wher…
#> # … with 1 more row, and abbreviated variable names ¹​analytic, ²​non_analytic
…
