Sanction sports • dopingdata
…
sport counts (raw)

sanctions |> 
  dplyr::count(sport, sort = TRUE)
#> # A tibble: 69 × 2
#>    sport                                           n
#>    <chr>                                       <int>
#>  1 cycling                                       132
#>  2 mixed martial arts                            128
#>  3 weightlifting                                 116
#>  4 track and field                                99
#>  5 wrestling                                      15
#>  6 triathlon                                      14
#>  7 paralympic track and field                     11
#>  8 swimming                                       10
#>  9 boxing                                          8
#> 10 brazilian jiu-jitsu                             7
#> 11 cycling - athlete support personnel             6
#> 12 rowing                                          6
#> 13 taekwondo                                       6
#> 14 track and field - athlete support personnel     6
#> 15 bobsled and skeleton                            5
#> 16 ice hockey                                      5
#> 17 judo                                            5
#> 18 paralympic judo                                 4
#> 19 archery                                         3
#> 20 cycling, triathlon                              3
#> 21 karate                                          3
#> 22 para track and field                            3
#> 23 paralympic cycling                              3
#> 24 rugby                                           3
#> 25 speedskating                                    3
#> # … with 44 more rows

athlete support personnel

I’ll create an identifier for athlete support personnel,
support_personnel.

dplyr::mutate(sanctions, 
  # support_personnel
  support_personnel = 
    dplyr::if_else(condition = stringr::str_detect(
      sport, "support personnel"), 
      true = TRUE, false = FALSE, missing = NA)) |> 
  dplyr::count(sport, support_personnel) |> 
  tidyr::pivot_wider(names_from = support_personnel, values_from = n)
#> # A tibble: 69 × 3
#>    sport                                           `FALSE` `TRUE`
#>    <chr>                                             <int>  <int>
#>  1 archery                                               3     NA
#>  2 baseball                                              1     NA
#>  3 bobsled                                               1     NA
#>  4 bobsled and skeleton                                  5     NA
#>  5 bobsled and skeleton, track and field                 1     NA
#>  6 boccia                                                2     NA
#>  7 bowling                                               1     NA
#>  8 boxing                                                8     NA
#>  9 brazilian jiu-jitsu                                   7     NA
#> 10 brazilian jiu-jitsu - athlete support personnel      NA      1
#> 11 brazillian jiu-jitsu                                  1     NA
#> 12 canoe                                                 1     NA
#> 13 cycling                                             132     NA
#> 14 cycling - athlete support personnel                  NA      6
#> 15 cycling, triathlon                                    3     NA
#> 16 cycling, weightlifting                                1     NA
#> 17 diving                                                2     NA
#> 18 equestrian                                            1     NA
#> 19 field hockey                                          1     NA
#> 20 gymnastics                                            1     NA
#> 21 ice hockey                                            5     NA
#> 22 judo                                                  5     NA
#> 23 karate                                                3     NA
#> 24 luge                                                  1     NA
#> 25 mixed martial arts                                  128     NA
#> # … with 44 more rows
track and field

I’m going to convert track and field as
track & field (this will help me determine which
athletes/support personnel are involved in multiple sports).

dplyr::mutate(sanctions,
  # support_personnel
  support_personnel = 
    dplyr::if_else(condition = stringr::str_detect(sport, "support personnel"), 
      true = TRUE, false = FALSE, missing = NA),
  # track & field
  sport = stringr::str_replace_all(sport, 'track and field', 'track & field')) |> 
  dplyr::count(sport, sort = TRUE)
#> # A tibble: 68 × 2
#>    sport                                         n
#>    <chr>                                     <int>
#>  1 cycling                                     132
#>  2 mixed martial arts                          128
#>  3 weightlifting                               116
#>  4 track & field                               101
#>  5 wrestling                                    15
#>  6 triathlon                                    14
#>  7 paralympic track & field                     11
#>  8 swimming                                     10
#>  9 boxing                                        8
#> 10 brazilian jiu-jitsu                           7
#> 11 cycling - athlete support personnel           6
#> 12 rowing                                        6
#> 13 taekwondo                                     6
#> 14 track & field - athlete support personnel     6
#> 15 bobsled and skeleton                          5
#> 16 ice hockey                                    5
#> 17 judo                                          5
#> 18 paralympic judo                               4
#> 19 archery                                       3
#> 20 cycling, triathlon                            3
#> 21 karate                                        3
#> 22 para track & field                            3
#> 23 paralympic cycling                            3
#> 24 rugby                                         3
#> 25 speedskating                                  3
#> # … with 43 more rows
…
dplyr::mutate(sanctions, 
  # # support_personnel
  support_personnel = 
    dplyr::if_else(condition = stringr::str_detect(sport, "support personnel"), 
      true = TRUE, false = FALSE, missing = NA),
  # track & field
  sport = stringr::str_replace_all(sport, 'track and field', 'track & field'),
  # brazilian jiu-jitsu
  sport = dplyr::case_when(
    sport == 'brazillian jiu-jitsu' ~ 'brazilian jiu-jitsu',
    TRUE ~ sport)) |> 
  dplyr::count(sport, sort = TRUE)
#> # A tibble: 67 × 2
#>    sport                                         n
#>    <chr>                                     <int>
#>  1 cycling                                     132
#>  2 mixed martial arts                          128
#>  3 weightlifting                               116
#>  4 track & field                               101
#>  5 wrestling                                    15
#>  6 triathlon                                    14
#>  7 paralympic track & field                     11
#>  8 swimming                                     10
#>  9 boxing                                        8
#> 10 brazilian jiu-jitsu                           8
#> 11 cycling - athlete support personnel           6
#> 12 rowing                                        6
#> 13 taekwondo                                     6
#> 14 track & field - athlete support personnel     6
#> 15 bobsled and skeleton                          5
#> 16 ice hockey                                    5
#> 17 judo                                          5
#> 18 paralympic judo                               4
#> 19 archery                                       3
#> 20 cycling, triathlon                            3
#> 21 karate                                        3
#> 22 para track & field                            3
#> 23 paralympic cycling                            3
#> 24 rugby                                         3
#> 25 speedskating                                  3
#> # … with 42 more rows
…
    dplyr::if_else(condition = stringr::str_detect(sport, "support personnel"), 
      true = TRUE, false = FALSE, missing = NA),
  # track & field
  sport = stringr::str_replace_all(sport, 'track and field', 'track & field'),
  # brazilian jiu-jitsu
  sport = dplyr::case_when(
    sport == 'brazillian jiu-jitsu' ~ 'brazilian jiu-jitsu',
    TRUE ~ sport),
  # paralympic
  paralympic = 
    dplyr::if_else(condition = stringr::str_detect(sport, "paralympic|para"), 
      true = TRUE, false = FALSE, missing = NA)) |> 
  dplyr::count(paralympic, sport) |> 
  tidyr::pivot_wider(names_from = paralympic, values_from = n)
#> # A tibble: 67 × 3
#>    sport                                           `FALSE` `TRUE`
#>    <chr>                                             <int>  <int>
#>  1 archery                                               3     NA
#>  2 baseball                                              1     NA
#>  3 bobsled                                               1     NA
#>  4 bobsled and skeleton                                  5     NA
#>  5 bobsled and skeleton, track & field                   1     NA
#>  6 boccia                                                2     NA
#>  7 bowling                                               1     NA
#>  8 boxing                                                8     NA
#>  9 brazilian jiu-jitsu                                   8     NA
#> 10 brazilian jiu-jitsu - athlete support personnel       1     NA
#> 11 canoe                                                 1     NA
#> 12 cycling                                             132     NA
#> 13 cycling - athlete support personnel                   6     NA
#> 14 cycling, triathlon                                    3     NA
#> 15 cycling, weightlifting                                1     NA
#> 16 diving                                                2     NA
#> 17 equestrian                                            1     NA
#> 18 field hockey                                          1     NA
#> 19 gymnastics                                            1     NA
#> 20 ice hockey                                            5     NA
#> 21 judo                                                  5     NA
#> 22 karate                                                3     NA
#> 23 luge                                                  1     NA
#> 24 mixed martial arts                                  128     NA
#> 25 pentathlon                                            1     NA
#> # … with 42 more rows
…
  # brazilian jiu-jitsu
  sport = case_when(
    sport == 'brazillian jiu-jitsu' ~ 'brazilian jiu-jitsu',
    TRUE ~ sport),
  # multiple_sports
  multiple_sports = 
    if_else(condition = stringr::str_detect(sport, "and |, "), 
      true = TRUE, false = FALSE, missing = NA),
  # paralympic
  paralympic = 
    if_else(condition = stringr::str_detect(sport, "paralympic|para"), 
      true = TRUE, false = FALSE, missing = NA)) |> 
  dplyr::count(multiple_sports, sport) |> 
  tidyr::pivot_wider(names_from = multiple_sports, values_from = n)
#> # A tibble: 67 × 3
#>    sport                                           `FALSE` `TRUE`
#>    <chr>                                             <int>  <int>
#>  1 archery                                               3     NA
#>  2 baseball                                              1     NA
#>  3 bobsled                                               1     NA
#>  4 boccia                                                2     NA
#>  5 bowling                                               1     NA
#>  6 boxing                                                8     NA
#>  7 brazilian jiu-jitsu                                   8     NA
#>  8 brazilian jiu-jitsu - athlete support personnel       1     NA
#>  9 canoe                                                 1     NA
#> 10 cycling                                             132     NA
#> 11 cycling - athlete support personnel                   6     NA
#> 12 diving                                                2     NA
#> 13 equestrian                                            1     NA
#> 14 field hockey                                          1     NA
#> 15 gymnastics                                            1     NA
#> 16 ice hockey                                            5     NA
#> 17 judo                                                  5     NA
#> 18 karate                                                3     NA
#> 19 luge                                                  1     NA
#> 20 mixed martial arts                                  128     NA
#> 21 para shooting                                         1     NA
#> 22 para track & field                                    3     NA
#> 23 paralympic archery                                    2     NA
#> 24 paralympic basketball                                 2     NA
#> 25 paralympic boccia                                     1     NA
#> # … with 42 more rows
…
Multiple sports

Some athletes were listed with multiple sports, which means they’ll
occupy multiple rows in a ‘tidy’ version of this dataset.

We can check this using count() below to verify we have
one athlete for each sport:

sanctions_sports |> 
  dplyr::filter(multiple_sports == TRUE) |> 
  tidyr::separate_rows(sport, sep = "and|, ") |> 
  dplyr::count(athlete, sport)
#> # A tibble: 31 × 3
#>    athlete                  sport                          n
#>    <chr>                    <chr>                      <int>
#>  1 allison, kyler           " skeleton"                    1
#>  2 allison, kyler           "bobsled "                     1
#>  3 bailey, ryan             " skeleton"                    1
#>  4 bailey, ryan             "bobsled "                     1
#>  5 bailey, ryan             "track & field"                1
#>  6 bascio, monica           "paralympic cycling"           1
#>  7 bascio, monica           "paralympic nordic skiing"     1
#>  8 blandford, jenna         "cycling"                      1
#>  9 blandford, jenna         "triathlon"                    1
#> 10 cruse, j.c.              " skeleton"                    1
#> 11 cruse, j.c.              "bobsled "                     1
#> 12 denney phillips, jessica "cycling"                      1
#> 13 denney phillips, jessica "weightlifting"                1
#> 14 dodson, amy              "paralympic track & field"     1
#> 15 dodson, amy              "paralympic triathlon"         1
#> 16 flanagan, tyler          " snowboarding"                1
#> 17 flanagan, tyler          "skiing "                      1
#> 18 green, roderick          "paralympic track & field"     1
#> 19 green, roderick          "paralympic volleyball"        1
#> 20 hamilton, tyler          "cycling"                      1
#> 21 hamilton, tyler          "triathlon"                    1
#> 22 ives, kevin              " skeleton"                    1
#> 23 ives, kevin              "bobsled "                     1
#> 24 jones, randy             " skeleton"                    1
#> 25 jones, randy             "bobsled "                     1
#> # … with 6 more rows
…
