Single AAF substances • dopingdata
…
  df = unclass_single_aaf_substances, 
  subs_col = substance_reason, 
  subs = "elevated t/e", 
  var = "analytic",
  val = "S1 ANABOLIC AGENTS",
  wb = FALSE) |> 
  classify_substance(
  subs_col = substance_reason, 
  subs = "3 whereabouts failures", 
  var = "non_analytic",
  val = "3 whereabouts failures",
  wb = FALSE) |> 
  dplyr::filter(!is.na(analytic) | !is.na(non_analytic)) |> 
  dplyr::select(athlete, sanction_date, substance_reason, analytic, non_analytic)
#> # A tibble: 26 × 5
#>    athlete           sanction_date substance_reason              analy…¹ non_a…²
#>    <chr>             <date>        <chr>                         <chr>   <chr>  
#>  1 gormley, isabel   2022-04-19    non-analytical: 3 whereabout… NA      3 wher…
#>  2 rodriguez, yair   2020-12-03    3 whereabouts failures        NA      3 wher…
#>  3 bey, kamal        2020-10-30    non-analytical: 3 whereabout… NA      3 wher…
#>  4 diaz, nick        2018-04-09    non-analytical: 3 whereabout… NA      3 wher…
#>  5 goodwin, marquise 2017-08-15    non-analytical: 3 whereabout… NA      3 wher…
#>  6 rollins, brianna  2017-04-20    non-analytical: 3 whereabout… NA      3 wher…
#>  7 bough, gino       2016-07-25    non-analytical: 3 whereabout… NA      3 wher…
#>  8 field, emily      2015-06-08    non-analytical: 3 whereabout… NA      3 wher…
#>  9 north, jonathan   2015-01-22    non-analytical: 3 whereabout… NA      3 wher…
#> 10 erickson, sarah   2014-10-13    non-analytical: 3 whereabout… NA      3 wher…
#> 11 ives, kevin       2014-07-08    non-analytical: 3 whereabout… NA      3 wher…
#> 12 hicks, jeremy     2014-06-20    non-analytical: 3 whereabout… NA      3 wher…
#> 13 dixon, reginald   2014-06-06    non-analytical: 3 whereabout… NA      3 wher…
#> 14 koon, paul        2014-04-28    non-analytical: 3 whereabout… NA      3 wher…
#> 15 davis, walter     2014-04-21    non-analytical: 3 whereabout… NA      3 wher…
#> 16 crawford, shawn   2013-04-18    non-analytical: 3 whereabout… NA      3 wher…
#> 17 lock, jane        2012-04-20    non-analytical: 3 whereabout… NA      3 wher…
#> 18 kochem, matt      2012-04-13    non-analytical: 3 whereabout… NA      3 wher…
#> 19 thompson, lenroy  2012-02-26    non-analytical: 3 whereabout… NA      3 wher…
#> 20 arias, luis       2012-02-24    non-analytical: 3 whereabout… NA      3 wher…
#> 21 goff, tyler       2010-09-13    non-analytical: 3 whereabout… NA      3 wher…
#> 22 jelks, mark       2010-08-30    non-analytical: 3 whereabout… NA      3 wher…
#> 23 barnette, brandon 2010-08-25    non-analytical: 3 whereabout… NA      3 wher…
#> 24 o'bee, kirk       2002-07-18    elevated t/e                  S1 ANA… NA     
#> 25 ives, kevin       2014-07-08    non-analytical: 3 whereabout… NA      3 wher…
#> # … with 1 more row, and abbreviated variable names ¹​analytic, ²​non_analytic
…
